<job id="8314582" owner="mhofmann@redhat.com" result="Warn" status="Aborted" retention_tag="scratch">
  <whiteboard>abortskip</whiteboard>
  <recipeSet priority="Normal" response="ack" id="12377064">
    <recipe id="14620841" job_id="8314582" recipe_set_id="12377064" whiteboard="" role="None" kickstart_url="http://beaker.engineering.redhat.com/kickstart/12561637" ks_meta="" kernel_options="" kernel_options_post="" start_time="2023-09-15 11:05:13" finish_time="2023-09-15 11:20:26" duration="0:15:13" result="Warn" status="Aborted" distro="Fedora-Rawhide-20230914.n.0" arch="x86_64" family="Fedorarawhide" variant="Server" system="kvm-04-guest12.lab.eng.rdu2.redhat.com">
      <autopick random="false"/>
      <watchdog/>
      <installation install_started="2023-09-15 11:06:41" install_finished="2023-09-15 11:15:57" postinstall_finished="2023-09-15 11:18:53"/>
      <packages/>
      <ks_appends/>
      <roles>
        <role value="None">
          <system value="kvm-04-guest12.lab.eng.rdu2.redhat.com"/>
        </role>
      </roles>
      <repos/>
      <distroRequires>
        <and>
          <distro_family op="=" value="Fedorarawhide"/>
          <distro_variant op="=" value="Server"/>
        </and>
      </distroRequires>
      <hostRequires>
          <hostname op="like" value="kvm-%-guest%.lab.eng.rdu2.redhat.com"/>
      <system_type value="Machine"/></hostRequires>
      <partitions/>
      <logs>
        <log href="https://beaker.engineering.redhat.com/recipes/14620841/logs/console.log" name="console.log"/>
        <log href="https://beaker.engineering.redhat.com/recipes/14620841/logs/systemd_journal.log" name="systemd_journal.log"/>
        <log href="https://beaker.engineering.redhat.com/recipes/14620841/logs/anaconda.log" name="anaconda.log"/>
        <log href="https://beaker.engineering.redhat.com/recipes/14620841/logs/sys.log" name="sys.log"/>
        <log href="https://beaker.engineering.redhat.com/recipes/14620841/logs/storage.log" name="storage.log"/>
        <log href="https://beaker.engineering.redhat.com/recipes/14620841/logs/program.log" name="program.log"/>
        <log href="https://beaker.engineering.redhat.com/recipes/14620841/logs/ks.cfg" name="ks.cfg"/>
        <log href="https://beaker.engineering.redhat.com/recipes/14620841/logs/packaging.log" name="packaging.log"/>
        <log href="https://beaker.engineering.redhat.com/recipes/14620841/logs/lvm.log" name="lvm.log"/>
        <log href="https://beaker.engineering.redhat.com/recipes/14620841/logs/hawkey.log" name="hawkey.log"/>
        <log href="https://beaker.engineering.redhat.com/recipes/14620841/logs/boot.log" name="boot.log"/>
      </logs>
      <task name="abortskip" role="None" id="166230776" result="Warn" status="Aborted" start_time="2023-09-15 11:20:21" finish_time="2023-09-15 11:20:25" duration="0:00:04">
        <fetch url="https://gitlab.com/api/v4/projects/cki-project%2fdocumentation/repository/archive.zip#content/docs/test-maintainers/status-meaning/restraint/abortskip"/>
        <roles>
          <role value="None">
            <system value="kvm-04-guest12.lab.eng.rdu2.redhat.com"/>
          </role>
        </roles>
        <logs>
          <log href="https://beaker.engineering.redhat.com/recipes/14620841/tasks/166230776/logs/taskout.log" name="taskout.log"/>
          <log href="https://beaker.engineering.redhat.com/recipes/14620841/tasks/166230776/logs/harness.log" name="harness.log"/>
        </logs>
        <results>
          <result path="/" start_time="2023-09-15 11:20:24" score="None" result="Skip" id="776594897">None<logs><log href="https://beaker.engineering.redhat.com/recipes/14620841/tasks/166230776/results/776594897/logs/dmesg.log" name="dmesg.log"/><log href="https://beaker.engineering.redhat.com/recipes/14620841/tasks/166230776/results/776594897/logs/avc.log" name="avc.log"/></logs></result>
          <result path="/" start_time="2023-09-15 11:20:25" score="0" result="Warn" id="776594901">None</result>
        </results>
      </task>
      <task name="pass" role="None" id="166230777" result="Warn" status="Aborted">
        <fetch url="https://gitlab.com/api/v4/projects/cki-project%2fdocumentation/repository/archive.zip#content/docs/test-maintainers/status-meaning/restraint/pass"/>
        <roles>
          <role value="None">
            <system value="kvm-04-guest12.lab.eng.rdu2.redhat.com"/>
          </role>
        </roles>
        <logs>
          <log href="https://beaker.engineering.redhat.com/recipes/14620841/tasks/166230777/logs/harness.log" name="harness.log"/>
        </logs>
        <results>
          <result path="/" start_time="2023-09-15 11:20:25" score="0" result="Warn" id="776594904">None</result>
        </results>
      </task>
    </recipe>
  </recipeSet>
</job>
